<?xml version="1.0" encoding="UTF-8"?>
<session version="1.0">
<refactoring accessors="true" comment="Delete element from project &apos;truckApi&apos;&#x0D;&#x0A;- Original project: &apos;truckApi&apos;&#x0D;&#x0A;- Original element: &apos;com.pruebat.truck.controllers.TrunckControllerTest.java&apos;" description="Delete element" element1="/src\/test\/java&lt;com.pruebat.truck.controllers{TrunckControllerTest.java" elements="1" flags="589830" id="org.eclipse.jdt.ui.delete" resources="0" stamp="1575218391619" subPackages="false" version="1.0"/>
</session>